{
  "version": 1,
  "width": 106,
  "height": 25,
  "duration": 235.672055,
  "command": null,
  "title": "Exercise #1",
  "env": {
    "TERM": "xterm-256color",
    "SHELL": "/bin/bash"
  },
  "stdout": [
    [
      0.781336,
      "\u001b]0;flachman@lachbook:/tmp\u0007"
    ],
    [
      0.000405,
      "\u001b[0;38;5;231;48;5;160;1m root \u001b[0;38;5;160;48;5;240;22m \u001b[0;38;5;250;48;5;240m/ \u001b[0;38;5;245;48;5;240;22m \u001b[0;38;5;252;48;5;240;1mtmp \u001b[0;38;5;240;49;22m \u001b[0m"
    ],
    [
      1.665892,
      "#"
    ],
    [
      0.383059,
      " "
    ],
    [
      0.538892,
      "C"
    ],
    [
      0.331168,
      "r"
    ],
    [
      0.065778,
      "e"
    ],
    [
      0.196195,
      "a"
    ],
    [
      0.17026,
      "t"
    ],
    [
      0.122422,
      "e"
    ],
    [
      0.580821,
      " "
    ],
    [
      0.174017,
      "a"
    ],
    [
      0.119355,
      " "
    ],
    [
      0.39356,
      "l"
    ],
    [
      0.202151,
      "o"
    ],
    [
      0.175967,
      "o"
    ],
    [
      0.311265,
      "p"
    ],
    [
      0.544626,
      "b"
    ],
    [
      0.072358,
      "a"
    ],
    [
      0.128443,
      "c"
    ],
    [
      0.175502,
      "k"
    ],
    [
      0.647778,
      " "
    ],
    [
      0.473054,
      "d"
    ],
    [
      0.085606,
      "e"
    ],
    [
      0.199879,
      "v"
    ],
    [
      0.252021,
      "i"
    ],
    [
      0.149868,
      "c"
    ],
    [
      0.099476,
      "e"
    ],
    [
      0.259168,
      " "
    ],
    [
      0.169574,
      "w"
    ],
    [
      0.239565,
      "i"
    ],
    [
      0.14443,
      "t"
    ],
    [
      0.171381,
      "h"
    ],
    [
      0.470996,
      " "
    ],
    [
      0.315037,
      "1"
    ],
    [
      0.918064,
      "9"
    ],
    [
      0.619434,
      "\b\u001b[K"
    ],
    [
      0.401699,
      "0"
    ],
    [
      0.201636,
      "0"
    ],
    [
      1.309904,
      "M"
    ],
    [
      0.394428,
      "i"
    ],
    [
      0.41945,
      "B"
    ],
    [
      0.783221,
      "\r\n"
    ],
    [
      0.029641,
      "\u001b]0;flachman@lachbook:/tmp\u0007"
    ],
    [
      0.000453,
      "\u001b[0;38;5;231;48;5;160;1m root \u001b[0;38;5;160;48;5;240;22m \u001b[0;38;5;250;48;5;240m/ \u001b[0;38;5;245;48;5;240;22m \u001b[0;38;5;252;48;5;240;1mtmp \u001b[0;38;5;240;49;22m \u001b[0m"
    ],
    [
      2.0,
      "f"
    ],
    [
      0.182094,
      "a"
    ],
    [
      0.163432,
      "l"
    ],
    [
      0.155955,
      "l"
    ],
    [
      0.194824,
      "o"
    ],
    [
      0.462852,
      "c"
    ],
    [
      0.071089,
      "a"
    ],
    [
      0.340466,
      "t"
    ],
    [
      0.045161,
      "e"
    ],
    [
      0.447669,
      " "
    ],
    [
      1.364643,
      "-"
    ],
    [
      0.308909,
      "l"
    ],
    [
      0.646908,
      " "
    ],
    [
      0.331835,
      "1"
    ],
    [
      0.239604,
      "0"
    ],
    [
      0.183849,
      "0"
    ],
    [
      0.46278,
      "M"
    ],
    [
      1.443221,
      " "
    ],
    [
      2.0,
      "f"
    ],
    [
      0.17994,
      "i"
    ],
    [
      0.229606,
      "l"
    ],
    [
      0.133608,
      "e"
    ],
    [
      0.219781,
      "d"
    ],
    [
      0.203359,
      "i"
    ],
    [
      0.129313,
      "s"
    ],
    [
      0.17183,
      "k"
    ],
    [
      0.828906,
      "\r\n"
    ],
    [
      0.036142,
      "\u001b]0;flachman@lachbook:/tmp\u0007"
    ],
    [
      0.000608,
      "\u001b[0;38;5;231;48;5;160;1m root \u001b[0;38;5;160;48;5;240;22m \u001b[0;38;5;250;48;5;240m/ \u001b[0;38;5;245;48;5;240;22m \u001b[0;38;5;252;48;5;240;1mtmp \u001b[0;38;5;240;49;22m \u001b[0m"
    ],
    [
      1.595274,
      "l"
    ],
    [
      0.193787,
      "o"
    ],
    [
      0.743119,
      "s"
    ],
    [
      0.083618,
      "e"
    ],
    [
      0.323528,
      "t"
    ],
    [
      0.239001,
      "u"
    ],
    [
      0.295895,
      "p"
    ],
    [
      1.20393,
      " "
    ],
    [
      0.279954,
      "-"
    ],
    [
      0.59868,
      "f"
    ],
    [
      0.291545,
      " "
    ],
    [
      1.612731,
      "f"
    ],
    [
      0.14401,
      "i"
    ],
    [
      0.217778,
      "l"
    ],
    [
      0.118034,
      "e"
    ],
    [
      0.376416,
      "disk "
    ],
    [
      1.019879,
      "\r\n"
    ],
    [
      0.054983,
      "\u001b]0;flachman@lachbook:/tmp\u0007"
    ],
    [
      0.000563,
      "\u001b[0;38;5;231;48;5;160;1m root \u001b[0;38;5;160;48;5;240;22m \u001b[0;38;5;250;48;5;240m/ \u001b[0;38;5;245;48;5;240;22m \u001b[0;38;5;252;48;5;240;1mtmp \u001b[0;38;5;240;49;22m \u001b[0m"
    ],
    [
      1.139538,
      "l"
    ],
    [
      0.221477,
      "o"
    ],
    [
      0.108794,
      "s"
    ],
    [
      0.082419,
      "e"
    ],
    [
      0.420519,
      "tup "
    ],
    [
      0.903866,
      "-"
    ],
    [
      0.12998,
      "a"
    ],
    [
      0.30994,
      "\r\n"
    ],
    [
      0.003564,
      "/dev/loop0: [66308]:917561 (/sysroot/tmp/filedisk)\r\n"
    ],
    [
      0.026069,
      "\u001b]0;flachman@lachbook:/tmp\u0007"
    ],
    [
      0.0005,
      "\u001b[0;38;5;231;48;5;160;1m root \u001b[0;38;5;160;48;5;240;22m \u001b[0;38;5;250;48;5;240m/ \u001b[0;38;5;245;48;5;240;22m \u001b[0;38;5;252;48;5;240;1mtmp \u001b[0;38;5;240;49;22m \u001b[0m"
    ],
    [
      2.0,
      "#"
    ],
    [
      0.505979,
      " "
    ],
    [
      0.727937,
      "C"
    ],
    [
      0.358625,
      "r"
    ],
    [
      0.080097,
      "e"
    ],
    [
      0.20521,
      "a"
    ],
    [
      0.188384,
      "t"
    ],
    [
      0.102459,
      "e"
    ],
    [
      0.280847,
      " "
    ],
    [
      0.471163,
      "G"
    ],
    [
      0.423416,
      "P"
    ],
    [
      0.161054,
      "T"
    ],
    [
      0.466276,
      " "
    ],
    [
      0.198616,
      "o"
    ],
    [
      0.201771,
      "n"
    ],
    [
      0.196039,
      " "
    ],
    [
      0.108752,
      "t"
    ],
    [
      0.155696,
      "h"
    ],
    [
      0.104481,
      "a"
    ],
    [
      0.260238,
      "t"
    ],
    [
      0.37041,
      " "
    ],
    [
      0.299773,
      "d"
    ],
    [
      0.048674,
      "e"
    ],
    [
      0.203079,
      "v"
    ],
    [
      0.156148,
      "i"
    ],
    [
      0.18813,
      "c"
    ],
    [
      0.066829,
      "e"
    ],
    [
      0.254651,
      " "
    ],
    [
      0.276395,
      "w"
    ],
    [
      0.839262,
      "i"
    ],
    [
      0.19602,
      "t"
    ],
    [
      0.192258,
      "h"
    ],
    [
      0.378419,
      " "
    ],
    [
      0.860296,
      "5"
    ],
    [
      0.430794,
      " "
    ],
    [
      0.159225,
      "s"
    ],
    [
      0.183973,
      "m"
    ],
    [
      0.144161,
      "a"
    ],
    [
      0.135257,
      "l"
    ],
    [
      0.167813,
      "l"
    ],
    [
      0.194715,
      " "
    ],
    [
      0.205588,
      "p"
    ],
    [
      0.11033,
      "a"
    ],
    [
      0.119786,
      "r"
    ],
    [
      0.224745,
      "t"
    ],
    [
      0.155161,
      "i"
    ],
    [
      0.357969,
      "t"
    ],
    [
      0.156867,
      "i"
    ],
    [
      0.416914,
      "o"
    ],
    [
      0.195992,
      "n"
    ],
    [
      0.132947,
      "s"
    ],
    [
      0.620171,
      "\r\n"
    ],
    [
      0.042337,
      "\u001b]0;flachman@lachbook:/tmp\u0007"
    ],
    [
      0.001123,
      "\u001b[0;38;5;231;48;5;160;1m root \u001b[0;38;5;160;48;5;240;22m \u001b[0;38;5;250;48;5;240m/ \u001b[0;38;5;245;48;5;240;22m \u001b[0;38;5;252;48;5;240;1mtmp \u001b[0;38;5;240;49;22m \u001b[0m"
    ],
    [
      1.166597,
      "g"
    ],
    [
      0.204395,
      "p"
    ],
    [
      0.124224,
      "a"
    ],
    [
      0.196971,
      "r"
    ],
    [
      0.751508,
      "t"
    ],
    [
      0.447963,
      "\b\u001b[K"
    ],
    [
      0.501555,
      "\b\u001b[K"
    ],
    [
      0.029584,
      "\b\u001b[K"
    ],
    [
      0.03172,
      "\b\u001b[K"
    ],
    [
      0.02819,
      "\b\u001b[K"
    ],
    [
      0.030287,
      "\u0007"
    ],
    [
      0.029088,
      "\u0007"
    ],
    [
      0.030453,
      "\u0007"
    ],
    [
      0.030674,
      "\u0007"
    ],
    [
      0.040252,
      "\u0007"
    ],
    [
      0.018981,
      "\u0007"
    ],
    [
      0.27652,
      "p"
    ],
    [
      0.075552,
      "a"
    ],
    [
      0.15545,
      "r"
    ],
    [
      0.24077,
      "t"
    ],
    [
      0.151131,
      "e"
    ],
    [
      0.181273,
      "d"
    ],
    [
      2.0,
      " "
    ],
    [
      0.410045,
      "/"
    ],
    [
      0.190366,
      "d"
    ],
    [
      0.059366,
      "e"
    ],
    [
      0.169353,
      "v"
    ],
    [
      0.37856,
      "/"
    ],
    [
      0.735786,
      "l"
    ],
    [
      0.206574,
      "o"
    ],
    [
      0.143856,
      "o"
    ],
    [
      0.192606,
      "\u0007p"
    ],
    [
      1.239426,
      "0"
    ],
    [
      0.620156,
      "\r\n"
    ],
    [
      0.035297,
      "GNU Parted 3.2\r\nPoužívám /dev/loop0\r\nVítá vás GNU Parted! Zobrazte seznam příkazů napsáním 'help'.\r\n\r                                                                          \r(parted) "
    ],
    [
      2.0,
      "h"
    ],
    [
      0.231625,
      "e"
    ],
    [
      0.149039,
      "l"
    ],
    [
      0.066658,
      "p"
    ],
    [
      0.431614,
      "\r\n  align-check TYPE N                        check partition N for TYPE(min|opt) alignment\r\n  help [PŘÍKAZ]                            vypsat obecnou nápovědu nebo nápovědu o PŘÍKAZu\r\n  mklabel,mktable TYP-JMENOVKY             vytvořit novou jmenovku disku (tabulku oddílů)\r\n  mkpart TYP-ODDÍLU [TYP-FS] ZAČÁTEK KONEC  vytvořit oddíl\r\n  name ČÍSLO NÁZEV                         pojmenovat oddíl ČÍSLO NÁZEV\r\n"
    ],
    [
      0.000102,
      "  print [devices|free|list,all|ČÍSLO]      zobrazit tabulku oddílů, dostupná zařízení, volné místo,\r\n        všechny nalezené oddíly, nebo konkrétní oddíl\r\n  quit                                     ukončit program\r\n  rescue ZAČÁTEK KONEC                     zachránit ztracený oddíl poblíž ZAČÁTKU a KONCE\r\n  resizepart NUMBER END                    resize partition NUMBER\r\n  rm ČÍSLO                                 odstranit oddíl ČÍSLO\r\n  select ZAŘÍZENÍ                          zvolit upravované zařízení\r\n  disk_set FLAG STATE                      change the FLAG on selected device\r\n"
    ],
    [
      6.9e-05,
      "  disk_toggle [FLAG]                       toggle the state of FLAG on selected device\r\n  set ČÍSLO PŘEPÍNAČ STAV                  změnit PŘEPÍNAČ na oddílu ČÍSLO\r\n  toggle [ČÍSLO [PŘEPÍNAČ]]                přepnout stav PŘEPÍNAČE na oddílu ČÍSLO\r\n  unit JEDNOTKA                            nastavit implicitní jednotku na JEDNOTKA\r\n"
    ],
    [
      5.4e-05,
      "  version                                  zobrazit číslo verze a informace o copyrightu GNU Parted\r\n\r                                                                          \r"
    ],
    [
      4e-05,
      "(parted) "
    ],
    [
      2.0,
      "m"
    ],
    [
      0.360753,
      "k"
    ],
    [
      0.223998,
      "t"
    ],
    [
      0.194719,
      "a"
    ],
    [
      0.227299,
      "b"
    ],
    [
      0.223291,
      "l"
    ],
    [
      0.115387,
      "e"
    ],
    [
      0.621031,
      "\r\n"
    ],
    [
      0.002461,
      "\r                                                                          \rTyp nové jmenovky disku? "
    ],
    [
      2.0,
      "g"
    ],
    [
      0.246967,
      "p"
    ],
    [
      0.125982,
      "t"
    ],
    [
      0.462392,
      "\r\n"
    ],
    [
      0.018476,
      "\r                                                                          \r(parted) "
    ],
    [
      1.955605,
      "p"
    ],
    [
      0.672793,
      "\r\n"
    ],
    [
      0.000118,
      "Model: Loopback device (loopback)\r\nDisk /dev/loop0: 105MB\r\nSector size (logical/physical): 512B/512B\r\nTabulka oddílů: gpt\r\nDisk Flags: \r\n\r\n"
    ],
    [
      5e-05,
      "Číslo  Začátek  Konec  Velikost  Systém souborů  Název  Přepínače\r\n\r\n"
    ],
    [
      7.4e-05,
      "\r                                                                          \r"
    ],
    [
      6.7e-05,
      "(parted) "
    ],
    [
      2.0,
      "m"
    ],
    [
      0.187788,
      "k"
    ],
    [
      0.240765,
      "\u0007"
    ],
    [
      0.315282,
      "\r\nmklabel  mkpart   mktable  \r\n(parted) mk"
    ],
    [
      0.484464,
      "d"
    ],
    [
      2.0,
      "\b\u001b[K"
    ],
    [
      0.263412,
      "p"
    ],
    [
      0.209496,
      "art "
    ],
    [
      2.0,
      "\r\n"
    ],
    [
      0.000121,
      "\r                                                                          \rNázev oddílu?  []? "
    ],
    [
      1.764609,
      "a"
    ],
    [
      0.631728,
      "a"
    ],
    [
      0.183224,
      "a"
    ],
    [
      0.356907,
      "\r\n"
    ],
    [
      8.6e-05,
      "\r                                                                          \rTyp souborového systému?  [ext2]? "
    ],
    [
      1.194448,
      "e"
    ],
    [
      0.322074,
      "x"
    ],
    [
      1.266081,
      "t"
    ],
    [
      0.840628,
      "4"
    ],
    [
      0.323858,
      "\r\n"
    ],
    [
      0.000101,
      "\r                                                                          \rZačátek? "
    ],
    [
      1.538515,
      "0"
    ],
    [
      0.601019,
      "\r\n"
    ],
    [
      0.00011,
      "\r                                                                          \rKonec? "
    ],
    [
      0.630523,
      "1"
    ],
    [
      0.562549,
      "0"
    ],
    [
      0.973954,
      "\r\n"
    ],
    [
      0.000189,
      "Varování: The resulting partition is not properly aligned for best performance: 34s % 2048s != 0s\r\n"
    ],
    [
      0.000251,
      "\r                                                                          \r\r                                                                          \rIgnorovat/Ignore/Zrušit/Cancel? "
    ],
    [
      1.822486,
      "i"
    ],
    [
      0.137615,
      "g"
    ],
    [
      0.148738,
      "n"
    ],
    [
      0.147987,
      "o"
    ],
    [
      0.300965,
      "r"
    ],
    [
      0.066106,
      "e"
    ],
    [
      0.200022,
      "\r\n"
    ],
    [
      0.016249,
      "\r                                                                          \r(parted) "
    ],
    [
      1.311276,
      "p"
    ],
    [
      0.354897,
      "\r\n"
    ],
    [
      8e-05,
      "Model: Loopback device (loopback)\r\nDisk /dev/loop0: 105MB\r\nSector size (logical/physical): 512B/512B\r\nTabulka oddílů: gpt\r\nDisk Flags: \r\n\r\n"
    ],
    [
      0.000176,
      "Číslo  Začátek  Konec   Velikost  Systém souborů  Název  Přepínače\r\n 1     17,4kB   10,0MB  9983kB    ext4            aaa\r\n\r\n"
    ],
    [
      4.7e-05,
      "\r                                                                          \r(parted) "
    ],
    [
      2.0,
      "m"
    ],
    [
      0.215617,
      "k"
    ],
    [
      0.288931,
      "p"
    ],
    [
      0.115012,
      "a"
    ],
    [
      0.1003,
      "r"
    ],
    [
      0.246141,
      "t"
    ],
    [
      0.805978,
      " "
    ],
    [
      0.668392,
      "b"
    ],
    [
      0.222042,
      "b"
    ],
    [
      0.18662,
      "b"
    ],
    [
      0.501468,
      " "
    ],
    [
      0.174277,
      "e"
    ],
    [
      0.247376,
      "x"
    ],
    [
      0.265579,
      "t"
    ],
    [
      0.766084,
      "4"
    ],
    [
      1.195913,
      " "
    ],
    [
      0.477412,
      "1"
    ],
    [
      0.17516,
      "0"
    ],
    [
      0.390621,
      " "
    ],
    [
      0.243114,
      "2"
    ],
    [
      0.279833,
      "0"
    ],
    [
      0.531276,
      "\r\n"
    ],
    [
      0.016156,
      "\r                                                                          \r(parted) "
    ],
    [
      1.531796,
      "p"
    ],
    [
      0.286525,
      "\r\n"
    ],
    [
      0.000306,
      "Model: Loopback device (loopback)\r\nDisk /dev/loop0: 105MB\r\nSector size (logical/physical): 512B/512B\r\nTabulka oddílů: gpt\r\nDisk Flags: \r\n\r\n"
    ],
    [
      6.9e-05,
      "Číslo  Začátek  Konec   Velikost  Systém souborů  Název  Přepínače\r\n 1     17,4kB   10,0MB  9983kB    ext4            aaa\r\n 2     10,5MB   19,9MB  9437kB    ext4            bbb\r\n\r\n"
    ],
    [
      0.000281,
      "\r                                                                          \r(parted) "
    ],
    [
      2.0,
      "p"
    ],
    [
      0.667002,
      "\bmkpart bbb ext4 10 20"
    ],
    [
      0.619421,
      "\b"
    ],
    [
      0.500963,
      "\b"
    ],
    [
      0.028588,
      "\b"
    ],
    [
      0.031223,
      "\b"
    ],
    [
      0.028897,
      "\b"
    ],
    [
      0.030897,
      "\b"
    ],
    [
      0.030052,
      "\b"
    ],
    [
      0.02988,
      "\b"
    ],
    [
      0.030256,
      "\b"
    ],
    [
      0.190207,
      "\b"
    ],
    [
      0.208728,
      "\b"
    ],
    [
      0.24987,
      "\b\u001b[1P"
    ],
    [
      0.194376,
      "\b\u001b[1P"
    ],
    [
      0.169011,
      "\b\u001b[1P"
    ],
    [
      0.302753,
      "\u001b[1@c"
    ],
    [
      0.208166,
      "\u001b[1@c"
    ],
    [
      0.180371,
      "\u001b[1@c"
    ],
    [
      0.26634,
      "\u001b[C"
    ],
    [
      0.207982,
      "\u001b[C"
    ],
    [
      0.156195,
      "\u001b[C"
    ],
    [
      0.134378,
      "\u001b[C"
    ],
    [
      0.15774,
      "\u001b[C"
    ],
    [
      0.188524,
      "\u001b[C"
    ],
    [
      0.599233,
      "\u001b[1P"
    ],
    [
      0.446452,
      "\u001b[1@2"
    ],
    [
      0.243851,
      "\u001b[C"
    ],
    [
      0.23553,
      "\u001b[C"
    ],
    [
      0.477134,
      "\u001b[1P0\b"
    ],
    [
      0.266779,
      "30\b"
    ],
    [
      0.275829,
      "\r\n"
    ],
    [
      0.015725,
      "\r                                                                          \r(parted) "
    ],
    [
      0.591254,
      "mkpart ccc ext4 20 30"
    ],
    [
      0.265986,
      "\b"
    ],
    [
      0.500958,
      "\b"
    ],
    [
      0.029579,
      "\b"
    ],
    [
      0.030991,
      "\b"
    ],
    [
      0.029665,
      "\b"
    ],
    [
      0.028881,
      "\b"
    ],
    [
      0.03094,
      "\b"
    ],
    [
      0.029379,
      "\b"
    ],
    [
      0.030308,
      "\b"
    ],
    [
      0.030299,
      "\b"
    ],
    [
      0.219047,
      "\b"
    ],
    [
      0.276481,
      "\b\u001b[1P"
    ],
    [
      0.215719,
      "\b\u001b[1P"
    ],
    [
      0.183352,
      "\b\u001b[1P"
    ],
    [
      0.183551,
      "\u001b[1@d"
    ],
    [
      0.180621,
      "\u001b[1@d"
    ],
    [
      0.181331,
      "\u001b[1@d"
    ],
    [
      0.204238,
      "\u001b[C"
    ],
    [
      0.193405,
      "\u001b[C"
    ],
    [
      0.147741,
      "\u001b[C"
    ],
    [
      0.141452,
      "\u001b[C"
    ],
    [
      0.129286,
      "\u001b[C"
    ],
    [
      0.140535,
      "\u001b[C"
    ],
    [
      0.655937,
      "\u001b[1P"
    ],
    [
      0.4341,
      "\u001b[1@3"
    ],
    [
      0.299343,
      "\u001b[C"
    ],
    [
      0.203326,
      "\u001b[C"
    ],
    [
      0.43486,
      "\u001b[1P0\b"
    ],
    [
      0.396357,
      "40\b"
    ],
    [
      0.275857,
      "\r\n"
    ],
    [
      0.016629,
      "\r                                                                          \r(parted) "
    ],
    [
      2.0,
      "mkpart ddd ext4 30 40"
    ],
    [
      0.316739,
      "\b"
    ],
    [
      0.33375,
      "\b\u001b[1P0\b"
    ],
    [
      0.680266,
      "50\b"
    ],
    [
      0.252539,
      "\b"
    ],
    [
      0.207965,
      "\b"
    ],
    [
      0.161655,
      "\b"
    ],
    [
      0.277824,
      "\b\u001b[1P"
    ],
    [
      0.586433,
      "\u001b[1@4"
    ],
    [
      0.219997,
      "\b"
    ],
    [
      0.1959,
      "\b"
    ],
    [
      0.157857,
      "\b"
    ],
    [
      0.129698,
      "\b"
    ],
    [
      0.131103,
      "\b"
    ],
    [
      0.247494,
      "\b"
    ],
    [
      0.103256,
      "\b"
    ],
    [
      0.314336,
      "\b\u001b[1P"
    ],
    [
      0.190991,
      "\b\u001b[1P"
    ],
    [
      0.156001,
      "\b\u001b[1P"
    ],
    [
      0.179134,
      "\u001b[1@e"
    ],
    [
      0.199324,
      "\u001b[1@e"
    ],
    [
      0.180483,
      "\u001b[1@e"
    ],
    [
      0.240419,
      "\r\n"
    ],
    [
      0.018311,
      "\r                                                                          \r"
    ],
    [
      0.001375,
      "(parted) "
    ],
    [
      1.385065,
      "p"
    ],
    [
      0.296098,
      "\r\n"
    ],
    [
      7.9e-05,
      "Model: Loopback device (loopback)\r\nDisk /dev/loop0: 105MB\r\nSector size (logical/physical): 512B/512B\r\nTabulka oddílů: gpt\r\nDisk Flags: \r\n\r\n"
    ],
    [
      0.000303,
      "Číslo  Začátek  Konec   Velikost  Systém souborů  Název  Přepínače\r\n 1     17,4kB   10,0MB  9983kB    ext4            aaa\r\n 2     10,5MB   19,9MB  9437kB    ext4            bbb\r\n 3     19,9MB   30,4MB  10,5MB    ext4            ccc\r\n 4     30,4MB   39,8MB  9437kB    ext4            ddd\r\n 5     39,8MB   50,3MB  10,5MB    ext4            eee\r\n\r\n\r                                                                          \r(parted) "
    ],
    [
      2.0,
      "q"
    ],
    [
      0.338807,
      "\r\n"
    ],
    [
      0.000112,
      "Informace: Možná budete potřebovat aktualizovat /etc/fstab.\r\n\r\n"
    ],
    [
      0.016726,
      "\r                                                                          \r"
    ],
    [
      0.024367,
      "\u001b]0;flachman@lachbook:/tmp\u0007"
    ],
    [
      0.000453,
      "\u001b[0;38;5;231;48;5;160;1m root \u001b[0;38;5;160;48;5;240;22m \u001b[0;38;5;250;48;5;240m/ \u001b[0;38;5;245;48;5;240;22m \u001b[0;38;5;252;48;5;240;1mtmp \u001b[0;38;5;240;49;22m \u001b[0m"
    ],
    [
      2.0,
      "l"
    ],
    [
      0.290505,
      "l"
    ],
    [
      0.304064,
      " "
    ],
    [
      0.467674,
      "/"
    ],
    [
      0.330619,
      "d"
    ],
    [
      0.092469,
      "e"
    ],
    [
      0.146965,
      "v"
    ],
    [
      0.52696,
      "/"
    ],
    [
      0.571053,
      "l"
    ],
    [
      0.222297,
      "o"
    ],
    [
      0.296979,
      "\u0007"
    ],
    [
      0.39562,
      "\r\nlog           loop0         loop0p2       loop0p4       \r\nloop-control  loop0p1       loop0p3       loop0p5       \r\n"
    ],
    [
      8.6e-05,
      "\u001b[0;38;5;231;48;5;160;1m root \u001b[0;38;5;160;48;5;240;22m \u001b[0;38;5;250;48;5;240m/ \u001b[0;38;5;245;48;5;240;22m \u001b[0;38;5;252;48;5;240;1mtmp \u001b[0;38;5;240;49;22m \u001b[0mll /dev/lo"
    ],
    [
      0.537771,
      "o"
    ],
    [
      0.36183,
      "\u0007p"
    ],
    [
      2.0,
      "*"
    ],
    [
      0.349562,
      "\r\n"
    ],
    [
      0.007588,
      "crw-rw----. 1 root disk  10, 237 27. úno 19.23 \u001b[0m\u001b[48;5;232;38;5;3m/dev/loop-control\u001b[0m\r\nbrw-rw----. 1 root disk   7,   0 27. úno 19.27 \u001b[48;5;232;38;5;11m/dev/loop0\u001b[0m\r\nbrw-rw----. 1 root disk 259,   6 27. úno 19.27 \u001b[48;5;232;38;5;11m/dev/loop0p1\u001b[0m\r\nbrw-rw----. 1 root disk 259,   7 27. úno 19.27 \u001b[48;5;232;38;5;11m/dev/loop0p2\u001b[0m\r\nbrw-rw----. 1 root disk 259,   8 27. úno 19.27 \u001b[48;5;232;38;5;11m/dev/loop0p3\u001b[0m\r\nbrw-rw----. 1 root disk 259,   9 27. úno 19.27 \u001b[48;5;232;38;5;11m/dev/loop0p4\u001b[0m\r\nbrw-rw----. 1 root disk 259,  10 27. úno 19.27 \u001b[48;5;232;38;5;11m/dev/loop0p5\u001b[0m\r\n"
    ],
    [
      0.021531,
      "\u001b]0;flachman@lachbook:/tmp\u0007"
    ],
    [
      0.000846,
      "\u001b[0;38;5;231;48;5;160;1m root \u001b[0;38;5;160;48;5;240;22m \u001b[0;38;5;250;48;5;240m/ \u001b[0;38;5;245;48;5;240;22m \u001b[0;38;5;252;48;5;240;1mtmp \u001b[0;38;5;240;49;22m \u001b[0m"
    ],
    [
      2.0,
      "#"
    ],
    [
      0.317215,
      " "
    ],
    [
      0.32706,
      "C"
    ],
    [
      0.325453,
      "o"
    ],
    [
      0.18313,
      "p"
    ],
    [
      0.066669,
      "r"
    ],
    [
      0.21665,
      "y"
    ],
    [
      0.175391,
      " "
    ],
    [
      0.734265,
      "\b\u001b[K"
    ],
    [
      0.202682,
      "\b\u001b[K"
    ],
    [
      0.19072,
      "\b\u001b[K"
    ],
    [
      0.146877,
      "y"
    ],
    [
      0.452272,
      " "
    ],
    [
      0.837201,
      "M"
    ],
    [
      0.35009,
      "B"
    ],
    [
      0.363782,
      "R"
    ],
    [
      0.425196,
      " "
    ],
    [
      0.219838,
      "p"
    ],
    [
      0.06934,
      "a"
    ],
    [
      0.150751,
      "r"
    ],
    [
      0.251521,
      "t"
    ],
    [
      0.763137,
      "i"
    ],
    [
      0.224743,
      "t"
    ],
    [
      0.172265,
      "i"
    ],
    [
      0.168864,
      "o"
    ],
    [
      0.191398,
      "n"
    ],
    [
      0.188688,
      " "
    ],
    [
      0.28172,
      "t"
    ],
    [
      0.178706,
      "a"
    ],
    [
      0.118858,
      "b"
    ],
    [
      0.186379,
      "l"
    ],
    [
      0.082925,
      "e"
    ],
    [
      0.216816,
      " "
    ],
    [
      0.419895,
      "("
    ],
    [
      0.383171,
      "*"
    ],
    [
      0.279099,
      ")"
    ],
    [
      0.359462,
      "\r\n"
    ],
    [
      0.025903,
      "\u001b]0;flachman@lachbook:/tmp\u0007"
    ],
    [
      0.000398,
      "\u001b[0;38;5;231;48;5;160;1m root \u001b[0;38;5;160;48;5;240;22m \u001b[0;38;5;250;48;5;240m/ \u001b[0;38;5;245;48;5;240;22m \u001b[0;38;5;252;48;5;240;1mtmp \u001b[0;38;5;240;49;22m \u001b[0m"
    ],
    [
      2.0,
      "g"
    ],
    [
      0.264236,
      "d"
    ],
    [
      0.129955,
      "i"
    ],
    [
      0.146915,
      "s"
    ],
    [
      0.130504,
      "k"
    ],
    [
      0.760959,
      " "
    ],
    [
      0.666365,
      "/"
    ],
    [
      0.176888,
      "d"
    ],
    [
      0.049501,
      "e"
    ],
    [
      0.184555,
      "v"
    ],
    [
      0.378788,
      "/"
    ],
    [
      0.49804,
      "l"
    ],
    [
      0.214468,
      "o"
    ],
    [
      0.167557,
      "o"
    ],
    [
      0.182889,
      "\u0007p"
    ],
    [
      0.96365,
      "0"
    ],
    [
      0.360856,
      "\r\n"
    ],
    [
      0.008194,
      "GPT fdisk (gdisk) version 1.0.3\r\n\r\n"
    ],
    [
      0.022706,
      "Partition table scan:\r\n  MBR: protective\r\n  BSD: not present\r\n  APM: not present\r\n  GPT: present\r\n\r\nFound valid GPT with protective MBR; using GPT.\r\n"
    ],
    [
      0.011633,
      "\r\nCommand (? for help): "
    ],
    [
      2.0,
      "r"
    ],
    [
      0.443955,
      "\r\n\r\nRecovery/transformation command (? for help): "
    ],
    [
      2.0,
      "p"
    ],
    [
      0.683735,
      "\r\n"
    ],
    [
      9.6e-05,
      "Disk /dev/loop0: 204800 sectors, 100.0 MiB\r\nSector size (logical/physical): 512/512 bytes\r\nDisk identifier (GUID): D9F6490C-CCFF-4FDE-98D1-C3D110C01FAF\r\nPartition table holds up to 128 entries\r\nMain partition table begins at sector 2 and ends at sector 33\r\nFirst usable sector is 34, last usable sector is 204766\r\n"
    ],
    [
      0.000221,
      "Partitions will be aligned on 2-sector boundaries\r\nTotal free space is 107411 sectors (52.4 MiB)\r\n\r\nNumber  Start (sector)    End (sector)  Size       Code  Name\r\n   1              34           19531   9.5 MiB     8300  aaa\r\n   2           20480           38911   9.0 MiB     8300  bbb\r\n   3           38912           59391   10.0 MiB    8300  ccc\r\n   4           59392           77823   9.0 MiB     8300  ddd\r\n   5           77824           98303   10.0 MiB    8300  eee\r\n\r\n"
    ],
    [
      0.000103,
      "Recovery/transformation command (? for help): "
    ],
    [
      2.0,
      "h"
    ],
    [
      0.575467,
      "\r\n\r\nWARNING! Hybrid MBRs are flaky and dangerous! If you decide not to use one,\r\njust hit the Enter key at the below prompt and your MBR partition table will\r\nbe untouched.\r\n\r\n"
    ],
    [
      0.000181,
      "\u0007Type from one to three GPT partition numbers, separated by spaces, to be\r\nadded to the hybrid MBR, in sequence: "
    ],
    [
      2.0,
      "1"
    ],
    [
      0.380993,
      " "
    ],
    [
      0.308333,
      "3"
    ],
    [
      2.0,
      " "
    ],
    [
      0.626892,
      "5"
    ],
    [
      1.514678,
      "\r\n"
    ],
    [
      7.8e-05,
      "Place EFI GPT (0xEE) partition first in MBR (good for GRUB)? (Y/N): "
    ],
    [
      2.0,
      "y"
    ],
    [
      0.994578,
      "\r\n"
    ],
    [
      0.000113,
      "\r\nCreating entry for GPT partition #1 (MBR partition #2)\r\nEnter an MBR hex code (default 83): "
    ],
    [
      2.0,
      "a"
    ],
    [
      0.11308,
      "f"
    ],
    [
      0.537652,
      "\r\n"
    ],
    [
      7e-05,
      "Set the bootable flag? (Y/N): "
    ],
    [
      2.0,
      "y"
    ],
    [
      0.61864,
      "\r\n"
    ],
    [
      9e-05,
      "\r\nCreating entry for GPT partition #3 (MBR partition #3)\r\nEnter an MBR hex code (default 83): "
    ],
    [
      2.0,
      "0"
    ],
    [
      0.305871,
      "c"
    ],
    [
      1.437309,
      "\r\n"
    ],
    [
      0.000138,
      "Set the bootable flag? (Y/N): "
    ],
    [
      0.522236,
      "y"
    ],
    [
      0.944676,
      "\r\n"
    ],
    [
      0.000137,
      "\r\nCreating entry for GPT partition #5 (MBR partition #4)\r\nEnter an MBR hex code (default 83): "
    ],
    [
      2.0,
      "0"
    ],
    [
      1.417744,
      "a"
    ],
    [
      0.630929,
      "\r\n"
    ],
    [
      0.000282,
      "Set the bootable flag? (Y/N): "
    ],
    [
      0.42011,
      "y"
    ],
    [
      0.348934,
      "\r\n"
    ],
    [
      0.001,
      "\r\nRecovery/transformation command (? for help): "
    ],
    [
      2.0,
      "o"
    ],
    [
      0.381039,
      "\r\n\r\n"
    ],
    [
      9.3e-05,
      "Disk size is 204800 sectors (100.0 MiB)\r\nMBR disk identifier: 0x00000000\r\nMBR partitions:\r\n\r\nNumber  Boot  Start Sector   End Sector   Status      Code\r\n   1                     1           33   primary     0xEE\r\n   2      *             34        19531   primary     0xAF\r\n   3      *          38912        59391   primary     0x0C\r\n   4      *          77824        98303   primary     0x0A\r\n\r\nRecovery/transformation command (? for help): "
    ],
    [
      2.0,
      "q"
    ],
    [
      0.577,
      "\r\n"
    ],
    [
      0.029774,
      "\u001b]0;flachman@lachbook:/tmp\u0007"
    ],
    [
      0.000383,
      "\u001b[0;38;5;231;48;5;160;1m root \u001b[0;38;5;160;48;5;240;22m \u001b[0;38;5;250;48;5;240m/ \u001b[0;38;5;245;48;5;240;22m \u001b[0;38;5;252;48;5;240;1mtmp \u001b[0;38;5;240;49;22m \u001b[0m"
    ],
    [
      2.0,
      "p"
    ],
    [
      0.073111,
      "a"
    ],
    [
      0.250503,
      "r"
    ],
    [
      0.218347,
      "t"
    ],
    [
      0.199721,
      "e"
    ],
    [
      0.157378,
      "d"
    ],
    [
      0.307664,
      " "
    ],
    [
      0.362268,
      "/"
    ],
    [
      0.409251,
      "d"
    ],
    [
      0.103288,
      "e"
    ],
    [
      0.425016,
      "v"
    ],
    [
      0.362455,
      "/"
    ],
    [
      0.25667,
      "l"
    ],
    [
      0.18901,
      "o"
    ],
    [
      0.138931,
      "o"
    ],
    [
      0.201574,
      "p"
    ],
    [
      0.623769,
      "0"
    ],
    [
      0.302009,
      "\r\n"
    ],
    [
      0.025384,
      "GNU Parted 3.2\r\nPoužívám /dev/loop0\r\nVítá vás GNU Parted! Zobrazte seznam příkazů napsáním 'help'.\r\n\r                                                                          \r(parted) "
    ],
    [
      1.107119,
      "p"
    ],
    [
      0.319573,
      "\r\n"
    ],
    [
      0.011079,
      "Model: Loopback device (loopback)\r\nDisk /dev/loop0: 105MB\r\nSector size (logical/physical): 512B/512B\r\nTabulka oddílů: gpt\r\nDisk Flags: \r\n\r\n"
    ],
    [
      0.000335,
      "Číslo  Začátek  Konec   Velikost  Systém souborů  Název  Přepínače\r\n 1     17,4kB   10,0MB  9983kB                    aaa\r\n 2     10,5MB   19,9MB  9437kB                    bbb\r\n 3     19,9MB   30,4MB  10,5MB                    ccc\r\n 4     30,4MB   39,8MB  9437kB                    ddd\r\n 5     39,8MB   50,3MB  10,5MB                    eee\r\n\r\n\r                                                                          \r(parted) "
    ],
    [
      2.0,
      "q"
    ],
    [
      0.296128,
      "\r\n"
    ],
    [
      0.031772,
      "\u001b]0;flachman@lachbook:/tmp\u0007"
    ],
    [
      0.000478,
      "\u001b[0;38;5;231;48;5;160;1m root \u001b[0;38;5;160;48;5;240;22m \u001b[0;38;5;250;48;5;240m/ \u001b[0;38;5;245;48;5;240;22m \u001b[0;38;5;252;48;5;240;1mtmp \u001b[0;38;5;240;49;22m \u001b[0m"
    ],
    [
      0.385924,
      "e"
    ],
    [
      0.249994,
      "x"
    ],
    [
      0.229771,
      "i"
    ],
    [
      0.134787,
      "t"
    ],
    [
      0.21469,
      "\r\nexit\r\n"
    ]
  ]
}
