{
  "version": 1,
  "width": 106,
  "height": 25,
  "duration": 294.314722,
  "command": null,
  "title": "ATOL (2): Exercise #1",
  "env": {
    "TERM": "xterm-256color",
    "SHELL": "/bin/bash"
  },
  "stdout": [
    [
      0.426622,
      "\u001b]0;flachman@lachbook:/tmp\u0007"
    ],
    [
      0.000431,
      "\u001b[0;38;5;231;48;5;160;1m root \u001b[0;38;5;160;48;5;240;22m \u001b[0;38;5;250;48;5;240m/ \u001b[0;38;5;245;48;5;240;22m \u001b[0;38;5;252;48;5;240;1mtmp \u001b[0;38;5;240;49;22m \u001b[0m"
    ],
    [
      0.313303,
      "f"
    ],
    [
      0.091909,
      "a"
    ],
    [
      0.15138,
      "l"
    ],
    [
      0.175922,
      "l"
    ],
    [
      0.21584,
      "o"
    ],
    [
      0.137578,
      "cate "
    ],
    [
      0.718297,
      "-"
    ],
    [
      0.677577,
      "l"
    ],
    [
      0.163851,
      " "
    ],
    [
      0.664185,
      "2"
    ],
    [
      0.209735,
      "0"
    ],
    [
      0.174647,
      "0"
    ],
    [
      0.897518,
      "M"
    ],
    [
      0.588884,
      " "
    ],
    [
      0.389501,
      "f"
    ],
    [
      0.171478,
      "i"
    ],
    [
      0.083893,
      "r"
    ],
    [
      0.212557,
      "s"
    ],
    [
      0.182634,
      "t"
    ],
    [
      0.301749,
      "-"
    ],
    [
      0.125232,
      "d"
    ],
    [
      0.207985,
      "i"
    ],
    [
      0.113787,
      "s"
    ],
    [
      0.102099,
      "k"
    ],
    [
      0.373135,
      "\r\n"
    ],
    [
      0.059021,
      "\u001b]0;flachman@lachbook:/tmp\u0007"
    ],
    [
      0.001514,
      "\u001b[0;38;5;231;48;5;160;1m root \u001b[0;38;5;160;48;5;240;22m \u001b[0;38;5;250;48;5;240m/ \u001b[0;38;5;245;48;5;240;22m \u001b[0;38;5;252;48;5;240;1mtmp \u001b[0;38;5;240;49;22m \u001b[0m"
    ],
    [
      0.638005,
      "fallocate -l 200M first-disk"
    ],
    [
      0.47655,
      "\b\b\b\b"
    ],
    [
      0.238999,
      "\b\b\b\b\b\b"
    ],
    [
      0.459199,
      "\u001b[1Pirst-disk\b\b\b\b\b\b\b\b\b"
    ],
    [
      0.202203,
      "\u001b[1Prst-disk\b\b\b\b\b\b\b\b"
    ],
    [
      0.174889,
      "\u001b[1Pst-disk\b\b\b\b\b\b\b"
    ],
    [
      0.232613,
      "\u001b[1Pt-disk\b\b\b\b\b\b"
    ],
    [
      0.378143,
      "\u001b[1P-disk\b\b\b\b\b"
    ],
    [
      0.166884,
      "s-disk\b\b\b\b\b"
    ],
    [
      0.064053,
      "e-disk\b\b\b\b\b"
    ],
    [
      0.232707,
      "c-disk\b\b\b\b\b"
    ],
    [
      0.120658,
      "o-disk\b\b\b\b\b"
    ],
    [
      0.190616,
      "n-disk\b\b\b\b\b"
    ],
    [
      0.105836,
      "d-disk\b\b\b\b\b"
    ],
    [
      0.212352,
      "\r\n"
    ],
    [
      0.053543,
      "\u001b]0;flachman@lachbook:/tmp\u0007"
    ],
    [
      0.001495,
      "\u001b[0;38;5;231;48;5;160;1m root \u001b[0;38;5;160;48;5;240;22m \u001b[0;38;5;250;48;5;240m/ \u001b[0;38;5;245;48;5;240;22m \u001b[0;38;5;252;48;5;240;1mtmp \u001b[0;38;5;240;49;22m \u001b[0m"
    ],
    [
      0.412652,
      "fallocate -l 200M second-disk"
    ],
    [
      0.576058,
      "\b"
    ],
    [
      0.390197,
      "\b\b\b"
    ],
    [
      0.237896,
      "\b\b\b\b\b\b\b"
    ],
    [
      0.434992,
      "\u001b[1Pecond-disk\b\b\b\b\b\b\b\b\b\b"
    ],
    [
      0.283023,
      "\u001b[1Pcond-disk\b\b\b\b\b\b\b\b\b"
    ],
    [
      0.20178,
      "\u001b[1Pond-disk\b\b\b\b\b\b\b\b"
    ],
    [
      0.209301,
      "\u001b[1Pnd-disk\b\b\b\b\b\b\b"
    ],
    [
      0.226024,
      "\u001b[1Pd-disk\b\b\b\b\b\b"
    ],
    [
      0.460035,
      "\u001b[1P-disk\b\b\b\b\b"
    ],
    [
      0.350434,
      "t-disk\b\b\b\b\b"
    ],
    [
      0.365224,
      "h-disk\b\b\b\b\b"
    ],
    [
      0.177186,
      "i-disk\b\b\b\b\b"
    ],
    [
      0.170486,
      "r-disk\b\b\b\b\b"
    ],
    [
      0.216341,
      "d-disk\b\b\b\b\b"
    ],
    [
      0.165818,
      "\r\n"
    ],
    [
      0.044855,
      "\u001b]0;flachman@lachbook:/tmp\u0007"
    ],
    [
      0.000645,
      "\u001b[0;38;5;231;48;5;160;1m root \u001b[0;38;5;160;48;5;240;22m \u001b[0;38;5;250;48;5;240m/ \u001b[0;38;5;245;48;5;240;22m \u001b[0;38;5;252;48;5;240;1mtmp \u001b[0;38;5;240;49;22m \u001b[0m"
    ],
    [
      1.127253,
      "l"
    ],
    [
      0.195442,
      "o"
    ],
    [
      0.091062,
      "s"
    ],
    [
      0.065854,
      "e"
    ],
    [
      0.23685,
      "tup "
    ],
    [
      0.507321,
      "-"
    ],
    [
      0.126235,
      "f"
    ],
    [
      0.180276,
      " "
    ],
    [
      0.177268,
      "f"
    ],
    [
      0.127575,
      "i"
    ],
    [
      0.111693,
      "r"
    ],
    [
      0.249807,
      "\u0007"
    ],
    [
      1.138842,
      "s"
    ],
    [
      0.2921,
      "t-disk "
    ],
    [
      0.525389,
      "\r\n"
    ],
    [
      0.073282,
      "\u001b]0;flachman@lachbook:/tmp\u0007"
    ],
    [
      0.001574,
      "\u001b[0;38;5;231;48;5;160;1m root \u001b[0;38;5;160;48;5;240;22m \u001b[0;38;5;250;48;5;240m/ \u001b[0;38;5;245;48;5;240;22m \u001b[0;38;5;252;48;5;240;1mtmp \u001b[0;38;5;240;49;22m \u001b[0m"
    ],
    [
      0.499492,
      "losetup -f first-disk "
    ],
    [
      0.477329,
      "\b\b\b\b\b"
    ],
    [
      0.224411,
      "\b\b\b\b\b\b"
    ],
    [
      0.363993,
      "\u001b[1P"
    ],
    [
      0.249805,
      "\u001b[1P"
    ],
    [
      0.165911,
      "\u001b[1P"
    ],
    [
      0.156221,
      "\u001b[1P"
    ],
    [
      0.172177,
      "\u001b[1P"
    ],
    [
      0.65452,
      "\u001b[1@s"
    ],
    [
      0.071008,
      "\u001b[1@e"
    ],
    [
      0.247184,
      "\u001b[1@c"
    ],
    [
      0.141469,
      "\u001b[1@o"
    ],
    [
      0.169925,
      "\u001b[1@n"
    ],
    [
      0.099983,
      "\u001b[1@d"
    ],
    [
      0.189814,
      "\r\n"
    ],
    [
      0.067398,
      "\u001b]0;flachman@lachbook:/tmp\u0007"
    ],
    [
      0.001447,
      "\u001b[0;38;5;231;48;5;160;1m root \u001b[0;38;5;160;48;5;240;22m \u001b[0;38;5;250;48;5;240m/ \u001b[0;38;5;245;48;5;240;22m \u001b[0;38;5;252;48;5;240;1mtmp \u001b[0;38;5;240;49;22m \u001b[0m"
    ],
    [
      0.437492,
      "losetup -f second-disk "
    ],
    [
      0.469388,
      "\b\b\b\b\b"
    ],
    [
      0.200076,
      "\b\b\b\b\b\b\b"
    ],
    [
      0.441473,
      "\u001b[1P"
    ],
    [
      0.259028,
      "\u001b[1P"
    ],
    [
      0.178406,
      "\u001b[1P"
    ],
    [
      0.162883,
      "\u001b[1P"
    ],
    [
      0.182928,
      "\u001b[1P"
    ],
    [
      0.37707,
      "\u001b[1P"
    ],
    [
      0.355999,
      "\u001b[1@t"
    ],
    [
      0.20681,
      "\u001b[1@h"
    ],
    [
      0.141671,
      "\u001b[1@i"
    ],
    [
      0.887712,
      "\u001b[1@r"
    ],
    [
      0.226247,
      "\u001b[1@d"
    ],
    [
      0.194948,
      "\r\n"
    ],
    [
      0.0207,
      "\u001b]0;flachman@lachbook:/tmp\u0007"
    ],
    [
      0.000394,
      "\u001b[0;38;5;231;48;5;160;1m root \u001b[0;38;5;160;48;5;240;22m \u001b[0;38;5;250;48;5;240m/ \u001b[0;38;5;245;48;5;240;22m \u001b[0;38;5;252;48;5;240;1mtmp \u001b[0;38;5;240;49;22m \u001b[0m"
    ],
    [
      0.882093,
      "l"
    ],
    [
      0.184297,
      "o"
    ],
    [
      0.074235,
      "s"
    ],
    [
      0.072219,
      "e"
    ],
    [
      0.250329,
      "tup "
    ],
    [
      0.57503,
      "-"
    ],
    [
      0.096789,
      "a"
    ],
    [
      0.133346,
      "\r\n"
    ],
    [
      0.003682,
      "/dev/loop1: [66308]:917605 (/sysroot/tmp/second-disk)\r\n"
    ],
    [
      0.012322,
      "/dev/loop2: [66308]:917606 (/sysroot/tmp/third-disk)\r\n"
    ],
    [
      0.012989,
      "/dev/loop0: [66308]:917565 (/sysroot/tmp/first-disk)\r\n"
    ],
    [
      0.052065,
      "\u001b]0;flachman@lachbook:/tmp\u0007"
    ],
    [
      0.001365,
      "\u001b[0;38;5;231;48;5;160;1m root \u001b[0;38;5;160;48;5;240;22m \u001b[0;38;5;250;48;5;240m/ \u001b[0;38;5;245;48;5;240;22m \u001b[0;38;5;252;48;5;240;1mtmp \u001b[0;38;5;240;49;22m \u001b[0m"
    ],
    [
      1.339419,
      "#"
    ],
    [
      0.761185,
      " "
    ],
    [
      0.931703,
      "1"
    ],
    [
      0.292758,
      "."
    ],
    [
      0.238353,
      " "
    ],
    [
      0.422756,
      "C"
    ],
    [
      0.351269,
      "r"
    ],
    [
      0.082132,
      "e"
    ],
    [
      0.19314,
      "a"
    ],
    [
      0.313046,
      "t"
    ],
    [
      0.118728,
      "e"
    ],
    [
      0.68381,
      " "
    ],
    [
      0.109627,
      "a"
    ],
    [
      0.190063,
      "n"
    ],
    [
      0.124502,
      "d"
    ],
    [
      0.180672,
      " "
    ],
    [
      0.189666,
      "d"
    ],
    [
      0.102262,
      "e"
    ],
    [
      0.149452,
      "f"
    ],
    [
      0.126579,
      "i"
    ],
    [
      0.167973,
      "n"
    ],
    [
      0.116109,
      "e"
    ],
    [
      0.685214,
      " "
    ],
    [
      0.269244,
      "R"
    ],
    [
      0.209705,
      "A"
    ],
    [
      0.253962,
      "I"
    ],
    [
      0.14253,
      "D"
    ],
    [
      1.046201,
      " "
    ],
    [
      0.472299,
      "5"
    ],
    [
      2.0,
      " "
    ],
    [
      0.289493,
      "u"
    ],
    [
      0.110599,
      "s"
    ],
    [
      0.105023,
      "i"
    ],
    [
      0.158964,
      "n"
    ],
    [
      0.096703,
      "g"
    ],
    [
      0.131327,
      " "
    ],
    [
      0.1965,
      "m"
    ],
    [
      0.155414,
      "d"
    ],
    [
      0.121305,
      "a"
    ],
    [
      0.160841,
      "d"
    ],
    [
      0.17854,
      "m"
    ],
    [
      0.958424,
      "\r\n"
    ],
    [
      0.042726,
      "\u001b]0;flachman@lachbook:/tmp\u0007"
    ],
    [
      0.000839,
      "\u001b[0;38;5;231;48;5;160;1m root \u001b[0;38;5;160;48;5;240;22m \u001b[0;38;5;250;48;5;240m/ \u001b[0;38;5;245;48;5;240;22m \u001b[0;38;5;252;48;5;240;1mtmp \u001b[0;38;5;240;49;22m \u001b[0m"
    ],
    [
      1.794731,
      "m"
    ],
    [
      0.113466,
      "d"
    ],
    [
      0.134681,
      "a"
    ],
    [
      0.174142,
      "d"
    ],
    [
      0.225634,
      "m"
    ],
    [
      0.162615,
      " "
    ],
    [
      2.0,
      "-"
    ],
    [
      0.154133,
      "-"
    ],
    [
      0.124665,
      "c"
    ],
    [
      0.249142,
      "r"
    ],
    [
      0.069401,
      "e"
    ],
    [
      0.2566,
      "a"
    ],
    [
      0.283298,
      "te "
    ],
    [
      2.0,
      "/"
    ],
    [
      0.24501,
      "d"
    ],
    [
      0.08962,
      "e"
    ],
    [
      0.172512,
      "v"
    ],
    [
      0.385081,
      "/"
    ],
    [
      1.570825,
      "m"
    ],
    [
      0.109673,
      "d"
    ],
    [
      0.329247,
      "0"
    ],
    [
      1.045484,
      " "
    ],
    [
      0.522203,
      "-"
    ],
    [
      0.148789,
      "-"
    ],
    [
      0.241269,
      "l"
    ],
    [
      0.153337,
      "e"
    ],
    [
      0.239318,
      "v"
    ],
    [
      0.086917,
      "e"
    ],
    [
      1.306066,
      "l"
    ],
    [
      0.60014,
      "="
    ],
    [
      1.294729,
      "5"
    ],
    [
      0.388191,
      " "
    ],
    [
      0.535653,
      "-"
    ],
    [
      0.160293,
      "-"
    ],
    [
      1.704117,
      "r"
    ],
    [
      0.157488,
      "a"
    ],
    [
      0.237859,
      "i"
    ],
    [
      0.431077,
      "\u0007"
    ],
    [
      0.547121,
      "d"
    ],
    [
      0.321817,
      "\u0007"
    ],
    [
      0.364647,
      "\u0007"
    ],
    [
      0.769013,
      "-"
    ],
    [
      0.384367,
      "d"
    ],
    [
      0.088466,
      "e"
    ],
    [
      0.77825,
      "v"
    ],
    [
      0.178632,
      "i"
    ],
    [
      0.478718,
      "c"
    ],
    [
      0.111679,
      "e"
    ],
    [
      0.265697,
      "s"
    ],
    [
      2.0,
      "="
    ],
    [
      0.738237,
      "3"
    ],
    [
      1.098557,
      " "
    ],
    [
      0.48704,
      "/"
    ],
    [
      0.163947,
      "d"
    ],
    [
      0.081538,
      "e"
    ],
    [
      0.157349,
      "v"
    ],
    [
      0.328956,
      "/"
    ],
    [
      0.236753,
      "l"
    ],
    [
      0.213915,
      "o"
    ],
    [
      0.156098,
      "o"
    ],
    [
      0.192587,
      "p"
    ],
    [
      0.730562,
      "["
    ],
    [
      0.715567,
      "0"
    ],
    [
      0.617783,
      "-"
    ],
    [
      0.446022,
      "2"
    ],
    [
      0.507043,
      "]"
    ],
    [
      1.215194,
      "\r\n"
    ],
    [
      0.119767,
      "mdadm: Defaulting to version 1.2 metadata\r\n"
    ],
    [
      0.264852,
      "mdadm: array /dev/md0 started.\r\n"
    ],
    [
      0.01222,
      "\u001b]0;flachman@lachbook:/tmp\u0007"
    ],
    [
      0.000918,
      "\u001b[0;38;5;231;48;5;160;1m root \u001b[0;38;5;160;48;5;240;22m \u001b[0;38;5;250;48;5;240m/ \u001b[0;38;5;245;48;5;240;22m \u001b[0;38;5;252;48;5;240;1mtmp \u001b[0;38;5;240;49;22m \u001b[0m"
    ],
    [
      2.0,
      "#"
    ],
    [
      0.613747,
      " "
    ],
    [
      0.503303,
      "2"
    ],
    [
      0.305745,
      "."
    ],
    [
      1.082087,
      " "
    ],
    [
      0.211476,
      "C"
    ],
    [
      0.219637,
      "h"
    ],
    [
      0.097769,
      "e"
    ],
    [
      0.09716,
      "c"
    ],
    [
      0.183406,
      "k"
    ],
    [
      1.22875,
      " "
    ],
    [
      0.454653,
      "t"
    ],
    [
      0.179188,
      "h"
    ],
    [
      0.121583,
      "e"
    ],
    [
      0.180762,
      " "
    ],
    [
      0.153723,
      "s"
    ],
    [
      0.41184,
      "a"
    ],
    [
      0.450462,
      "t"
    ],
    [
      0.38603,
      "\b\u001b[K"
    ],
    [
      0.18083,
      "\b\u001b[K"
    ],
    [
      0.11808,
      "t"
    ],
    [
      0.149338,
      "a"
    ],
    [
      0.133123,
      "t"
    ],
    [
      0.349359,
      "u"
    ],
    [
      0.103652,
      "s"
    ],
    [
      0.215727,
      " "
    ],
    [
      0.602871,
      "o"
    ],
    [
      0.20031,
      "f"
    ],
    [
      0.139975,
      " "
    ],
    [
      0.146205,
      "y"
    ],
    [
      0.138529,
      "o"
    ],
    [
      0.061051,
      "u"
    ],
    [
      0.141017,
      "r"
    ],
    [
      0.239079,
      " "
    ],
    [
      0.232716,
      "d"
    ],
    [
      0.089198,
      "e"
    ],
    [
      0.219512,
      "v"
    ],
    [
      0.128361,
      "i"
    ],
    [
      0.132122,
      "c"
    ],
    [
      0.067734,
      "e"
    ],
    [
      0.221761,
      "\r\n"
    ],
    [
      0.031727,
      "\u001b]0;flachman@lachbook:/tmp\u0007"
    ],
    [
      0.000444,
      "\u001b[0;38;5;231;48;5;160;1m root \u001b[0;38;5;160;48;5;240;22m \u001b[0;38;5;250;48;5;240m/ \u001b[0;38;5;245;48;5;240;22m \u001b[0;38;5;252;48;5;240;1mtmp \u001b[0;38;5;240;49;22m \u001b[0m"
    ],
    [
      1.67498,
      "m"
    ],
    [
      0.185643,
      "d"
    ],
    [
      0.285269,
      "a"
    ],
    [
      0.113345,
      "d"
    ],
    [
      0.206958,
      "m"
    ],
    [
      0.890747,
      " "
    ],
    [
      0.398887,
      "-"
    ],
    [
      0.150647,
      "-"
    ],
    [
      0.093638,
      "d"
    ],
    [
      0.071287,
      "e"
    ],
    [
      0.234658,
      "t"
    ],
    [
      0.129254,
      "a"
    ],
    [
      0.1734,
      "i"
    ],
    [
      0.1952,
      "l"
    ],
    [
      0.688743,
      " "
    ],
    [
      1.521233,
      "/"
    ],
    [
      0.192415,
      "d"
    ],
    [
      0.073864,
      "e"
    ],
    [
      0.181558,
      "v"
    ],
    [
      0.230124,
      "/"
    ],
    [
      0.843479,
      "m"
    ],
    [
      0.166627,
      "d"
    ],
    [
      0.701813,
      "0"
    ],
    [
      0.956813,
      "\r\n"
    ],
    [
      0.031299,
      "/dev/md0:\r\n        Version : 1.2\r\n"
    ],
    [
      0.000112,
      "  Creation Time : Tue Mar  6 16:16:47 2018\r\n     Raid Level : raid5\r\n     Array Size : 407552 (398.00 MiB 417.33 MB)\r\n  Used Dev Size : 203776 (199.00 MiB 208.67 MB)\r\n   Raid Devices : 3\r\n  Total Devices : 3\r\n    Persistence : Superblock is persistent\r\n\r\n    Update Time : Tue Mar  6 16:16:49 2018\r\n          State : clean \r\n Active Devices : 3\r\nWorking Devices : 3\r\n Failed Devices : 0\r\n  Spare Devices : 0\r\n\r\n         Layout : left-symmetric\r\n     Chunk Size : 512K\r\n\r\n"
    ],
    [
      9e-05,
      "           Name : lachbook:0  (local to host lachbook)\r\n           UUID : 1e4cc345:48d519b3:aa516367:d690f01e\r\n         Events : 18\r\n\r\n    Number   Major   Minor   RaidDevice State\r\n       0       7        0        0      active sync   /dev/loop0\r\n       1       7        1        1      active sync   /dev/loop1\r\n       3       7        2        2      active sync   /dev/loop2\r\n"
    ],
    [
      0.030905,
      "\u001b]0;flachman@lachbook:/tmp\u0007"
    ],
    [
      0.000452,
      "\u001b[0;38;5;231;48;5;160;1m root \u001b[0;38;5;160;48;5;240;22m \u001b[0;38;5;250;48;5;240m/ \u001b[0;38;5;245;48;5;240;22m \u001b[0;38;5;252;48;5;240;1mtmp \u001b[0;38;5;240;49;22m \u001b[0m"
    ],
    [
      2.0,
      "c"
    ],
    [
      0.076271,
      "a"
    ],
    [
      0.228889,
      "t"
    ],
    [
      0.201848,
      " "
    ],
    [
      0.526382,
      "/"
    ],
    [
      0.230503,
      "p"
    ],
    [
      0.121145,
      "r"
    ],
    [
      0.153103,
      "o"
    ],
    [
      0.168701,
      "c"
    ],
    [
      0.414187,
      "/"
    ],
    [
      0.722967,
      "m"
    ],
    [
      0.11321,
      "d"
    ],
    [
      0.261693,
      "stat "
    ],
    [
      0.424153,
      "\r\n"
    ],
    [
      0.007152,
      "Personalities : [raid1] [raid6] [raid5] [raid4] \r\nmd0 : active raid5 loop2[3] loop1[1] loop0[0]\r\n      407552 blocks super 1.2 level 5, 512k chunk, algorithm 2 [3/3] [UUU]\r\n      \r\nunused devices: <none>\r\n"
    ],
    [
      0.022241,
      "\u001b]0;flachman@lachbook:/tmp\u0007"
    ],
    [
      0.000723,
      "\u001b[0;38;5;231;48;5;160;1m root \u001b[0;38;5;160;48;5;240;22m \u001b[0;38;5;250;48;5;240m/ \u001b[0;38;5;245;48;5;240;22m \u001b[0;38;5;252;48;5;240;1mtmp \u001b[0;38;5;240;49;22m \u001b[0m"
    ],
    [
      2.0,
      "\u001b[H\u001b[2J\u001b[0;38;5;231;48;5;160;1m root \u001b[0;38;5;160;48;5;240;22m \u001b[0;38;5;250;48;5;240m/ \u001b[0;38;5;245;48;5;240;22m \u001b[0;38;5;252;48;5;240;1mtmp \u001b[0;38;5;240;49;22m \u001b[0m"
    ],
    [
      1.148305,
      "#"
    ],
    [
      1.615353,
      " "
    ],
    [
      2.0,
      "3"
    ],
    [
      0.346326,
      "."
    ],
    [
      0.252244,
      " "
    ],
    [
      1.397925,
      "S"
    ],
    [
      0.224332,
      "i"
    ],
    [
      0.200958,
      "m"
    ],
    [
      0.235304,
      "u"
    ],
    [
      0.244295,
      "l"
    ],
    [
      0.119503,
      "a"
    ],
    [
      0.21391,
      "r"
    ],
    [
      0.084978,
      "e"
    ],
    [
      0.458021,
      "\b\u001b[K"
    ],
    [
      0.176453,
      "\b\u001b[K"
    ],
    [
      0.059162,
      "t"
    ],
    [
      0.062674,
      "e"
    ],
    [
      0.705661,
      " "
    ],
    [
      2.0,
      "t"
    ],
    [
      0.200823,
      "h"
    ],
    [
      0.12793,
      "e"
    ],
    [
      0.135549,
      " "
    ],
    [
      0.230268,
      "d"
    ],
    [
      0.108466,
      "i"
    ],
    [
      0.140733,
      "s"
    ],
    [
      0.107273,
      "k"
    ],
    [
      0.193655,
      " "
    ],
    [
      0.521899,
      "f"
    ],
    [
      0.108573,
      "a"
    ],
    [
      0.202512,
      "i"
    ],
    [
      0.189258,
      "l"
    ],
    [
      0.206578,
      "u"
    ],
    [
      0.14432,
      "r"
    ],
    [
      0.065203,
      "e"
    ],
    [
      0.626737,
      "\r\n"
    ],
    [
      0.041421,
      "\u001b]0;flachman@lachbook:/tmp\u0007"
    ],
    [
      0.002905,
      "\u001b[0;38;5;231;48;5;160;1m root \u001b[0;38;5;160;48;5;240;22m \u001b[0;38;5;250;48;5;240m/ \u001b[0;38;5;245;48;5;240;22m \u001b[0;38;5;252;48;5;240;1mtmp \u001b[0;38;5;240;49;22m \u001b[0m"
    ],
    [
      2.0,
      "m"
    ],
    [
      0.107687,
      "d"
    ],
    [
      0.213111,
      "a"
    ],
    [
      0.102553,
      "d"
    ],
    [
      0.211091,
      "m"
    ],
    [
      0.196551,
      " "
    ],
    [
      1.429512,
      "/"
    ],
    [
      0.171332,
      "d"
    ],
    [
      0.072184,
      "e"
    ],
    [
      0.180958,
      "v"
    ],
    [
      0.29739,
      "/"
    ],
    [
      0.501781,
      "m"
    ],
    [
      0.1467,
      "d"
    ],
    [
      0.271013,
      "0 "
    ],
    [
      1.236536,
      "-"
    ],
    [
      0.145084,
      "f"
    ],
    [
      0.208579,
      " "
    ],
    [
      0.551753,
      "/"
    ],
    [
      0.169593,
      "d"
    ],
    [
      0.049421,
      "e"
    ],
    [
      0.195193,
      "v"
    ],
    [
      0.569977,
      "/"
    ],
    [
      0.378787,
      "l"
    ],
    [
      0.205107,
      "o"
    ],
    [
      0.172355,
      "o"
    ],
    [
      0.139852,
      "\u0007p"
    ],
    [
      0.67786,
      "1"
    ],
    [
      0.409069,
      "\r\n"
    ],
    [
      0.0027,
      "mdadm: set /dev/loop1 faulty in /dev/md0\r\n"
    ],
    [
      0.027247,
      "\u001b]0;flachman@lachbook:/tmp\u0007"
    ],
    [
      0.001388,
      "\u001b[0;38;5;231;48;5;160;1m root \u001b[0;38;5;160;48;5;240;22m \u001b[0;38;5;250;48;5;240m/ \u001b[0;38;5;245;48;5;240;22m \u001b[0;38;5;252;48;5;240;1mtmp \u001b[0;38;5;240;49;22m \u001b[0m"
    ],
    [
      2.0,
      "#"
    ],
    [
      0.538954,
      " "
    ],
    [
      0.879732,
      "4"
    ],
    [
      0.795177,
      "."
    ],
    [
      0.202906,
      " "
    ],
    [
      0.995803,
      "R"
    ],
    [
      0.076819,
      "e"
    ],
    [
      0.26518,
      "c"
    ],
    [
      0.13553,
      "o"
    ],
    [
      0.141258,
      "v"
    ],
    [
      0.072123,
      "e"
    ],
    [
      0.245182,
      "r"
    ],
    [
      0.5741,
      " "
    ],
    [
      0.337459,
      "f"
    ],
    [
      0.114556,
      "r"
    ],
    [
      0.185269,
      "o"
    ],
    [
      0.228824,
      "m"
    ],
    [
      0.189167,
      " "
    ],
    [
      0.113616,
      "a"
    ],
    [
      0.145553,
      " "
    ],
    [
      0.12694,
      "d"
    ],
    [
      0.170132,
      "i"
    ],
    [
      0.109856,
      "s"
    ],
    [
      0.12855,
      "k"
    ],
    [
      0.193115,
      " "
    ],
    [
      0.34933,
      "f"
    ],
    [
      0.160008,
      "a"
    ],
    [
      0.238883,
      "i"
    ],
    [
      0.293313,
      "l"
    ],
    [
      0.20792,
      "u"
    ],
    [
      0.125377,
      "r"
    ],
    [
      0.073498,
      "e"
    ],
    [
      0.586819,
      "\r\n"
    ],
    [
      0.051708,
      "\u001b]0;flachman@lachbook:/tmp\u0007"
    ],
    [
      0.001126,
      "\u001b[0;38;5;231;48;5;160;1m root \u001b[0;38;5;160;48;5;240;22m \u001b[0;38;5;250;48;5;240m/ \u001b[0;38;5;245;48;5;240;22m \u001b[0;38;5;252;48;5;240;1mtmp \u001b[0;38;5;240;49;22m \u001b[0m"
    ],
    [
      2.0,
      "#"
    ],
    [
      0.287647,
      " "
    ],
    [
      1.542343,
      "-"
    ],
    [
      0.30699,
      " "
    ],
    [
      1.024199,
      "R"
    ],
    [
      0.059458,
      "e"
    ],
    [
      0.219369,
      "m"
    ],
    [
      0.148489,
      "o"
    ],
    [
      0.093786,
      "v"
    ],
    [
      0.078489,
      "e"
    ],
    [
      0.194472,
      " "
    ],
    [
      0.310817,
      "t"
    ],
    [
      0.168097,
      "h"
    ],
    [
      0.146498,
      "e"
    ],
    [
      0.118617,
      " "
    ],
    [
      0.64905,
      "f"
    ],
    [
      0.108687,
      "a"
    ],
    [
      0.21978,
      "i"
    ],
    [
      0.20628,
      "l"
    ],
    [
      0.055058,
      "e"
    ],
    [
      0.179715,
      "d"
    ],
    [
      0.265434,
      " "
    ],
    [
      0.213797,
      "d"
    ],
    [
      0.167982,
      "i"
    ],
    [
      0.11051,
      "s"
    ],
    [
      0.118191,
      "k"
    ],
    [
      2.0,
      "\r\n"
    ],
    [
      0.048419,
      "\u001b]0;flachman@lachbook:/tmp\u0007"
    ],
    [
      0.001573,
      "\u001b[0;38;5;231;48;5;160;1m root \u001b[0;38;5;160;48;5;240;22m \u001b[0;38;5;250;48;5;240m/ \u001b[0;38;5;245;48;5;240;22m \u001b[0;38;5;252;48;5;240;1mtmp \u001b[0;38;5;240;49;22m \u001b[0m"
    ],
    [
      2.0,
      "m"
    ],
    [
      0.156238,
      "d"
    ],
    [
      0.106407,
      "a"
    ],
    [
      0.369554,
      "dm "
    ],
    [
      2.0,
      "-"
    ],
    [
      0.166576,
      "-"
    ],
    [
      0.146375,
      "d"
    ],
    [
      0.085877,
      "e"
    ],
    [
      0.170649,
      "a"
    ],
    [
      0.271207,
      "t"
    ],
    [
      0.194079,
      "i"
    ],
    [
      0.192514,
      "l"
    ],
    [
      1.158025,
      "\b\u001b[K"
    ],
    [
      0.201218,
      "\b\u001b[K"
    ],
    [
      0.164199,
      "\b\u001b[K"
    ],
    [
      0.160836,
      "\b\u001b[K"
    ],
    [
      0.514701,
      "t"
    ],
    [
      0.147089,
      "a"
    ],
    [
      0.195509,
      "i"
    ],
    [
      0.19591,
      "l"
    ],
    [
      0.185218,
      " "
    ],
    [
      0.492491,
      "/"
    ],
    [
      0.141227,
      "d"
    ],
    [
      0.052467,
      "e"
    ],
    [
      0.197225,
      "v"
    ],
    [
      0.254424,
      "/"
    ],
    [
      0.236992,
      "m"
    ],
    [
      0.127107,
      "d"
    ],
    [
      0.178644,
      "0 "
    ],
    [
      0.825047,
      "\r\n"
    ],
    [
      0.006053,
      "/dev/md0:\r\n        Version : 1.2\r\n  Creation Time : Tue Mar  6 16:16:47 2018\r\n     Raid Level : raid5\r\n     Array Size : 407552 (398.00 MiB 417.33 MB)\r\n  Used Dev Size : 203776 (199.00 MiB 208.67 MB)\r\n   Raid Devices : 3\r\n  Total Devices : 3\r\n    Persistence : Superblock is persistent\r\n\r\n    Update Time : Tue Mar  6 16:18:01 2018\r\n          State : clean, degraded \r\n Active Devices : 2\r\nWorking Devices : 2\r\n"
    ],
    [
      3.2e-05,
      " Failed Devices : 1\r\n  Spare Devices : 0\r\n\r\n         Layout : left-symmetric\r\n     Chunk Size : 512K\r\n\r\n           Name : lachbook:0  (local to host lachbook)\r\n           UUID : 1e4cc345:48d519b3:aa516367:d690f01e\r\n         Events : 20\r\n\r\n    Number   Major   Minor   RaidDevice State\r\n       0       7        0        0      active sync   /dev/loop0\r\n       -       0        0        1      removed\r\n       3       7        2        2      active sync   /dev/loop2\r\n\r\n       1       7        1        -      faulty   /dev/loop1\r\n"
    ],
    [
      0.01669,
      "\u001b]0;flachman@lachbook:/tmp\u0007"
    ],
    [
      0.000514,
      "\u001b[0;38;5;231;48;5;160;1m root \u001b[0;38;5;160;48;5;240;22m \u001b[0;38;5;250;48;5;240m/ \u001b[0;38;5;245;48;5;240;22m \u001b[0;38;5;252;48;5;240;1mtmp \u001b[0;38;5;240;49;22m \u001b[0m"
    ],
    [
      2.0,
      "c"
    ],
    [
      0.067907,
      "a"
    ],
    [
      0.254724,
      "t"
    ],
    [
      0.328927,
      " "
    ],
    [
      0.341546,
      "/"
    ],
    [
      1.554034,
      "p"
    ],
    [
      0.11634,
      "r"
    ],
    [
      0.140327,
      "o"
    ],
    [
      0.145277,
      "c"
    ],
    [
      0.282421,
      "/"
    ],
    [
      0.331514,
      "m"
    ],
    [
      0.083555,
      "d"
    ],
    [
      0.234688,
      "stat "
    ],
    [
      0.333947,
      "\r\n"
    ],
    [
      0.002928,
      "Personalities : [raid1] [raid6] [raid5] [raid4] \r\nmd0 : active raid5 loop2[3] loop1[1](F) loop0[0]\r\n      407552 blocks super 1.2 level 5, 512k chunk, algorithm 2 [3/2] [U_U]\r\n      \r\nunused devices: <none>\r\n"
    ],
    [
      0.044354,
      "\u001b]0;flachman@lachbook:/tmp\u0007"
    ],
    [
      0.001326,
      "\u001b[0;38;5;231;48;5;160;1m root \u001b[0;38;5;160;48;5;240;22m \u001b[0;38;5;250;48;5;240m/ \u001b[0;38;5;245;48;5;240;22m \u001b[0;38;5;252;48;5;240;1mtmp \u001b[0;38;5;240;49;22m \u001b[0m"
    ],
    [
      2.0,
      "m"
    ],
    [
      0.187529,
      "d"
    ],
    [
      0.511715,
      "a"
    ],
    [
      0.327173,
      "dm "
    ],
    [
      2.0,
      "/"
    ],
    [
      0.233617,
      "d"
    ],
    [
      0.118381,
      "e"
    ],
    [
      0.166287,
      "v"
    ],
    [
      0.233577,
      "/"
    ],
    [
      0.548486,
      "m"
    ],
    [
      0.120329,
      "d"
    ],
    [
      0.227348,
      "0 "
    ],
    [
      1.275446,
      "-"
    ],
    [
      0.152225,
      "-"
    ],
    [
      0.103693,
      "r"
    ],
    [
      0.060587,
      "e"
    ],
    [
      0.149661,
      "m"
    ],
    [
      0.145943,
      "o"
    ],
    [
      0.111734,
      "v"
    ],
    [
      0.052565,
      "e"
    ],
    [
      0.325086,
      " "
    ],
    [
      0.744395,
      "/"
    ],
    [
      0.178579,
      "d"
    ],
    [
      0.096302,
      "e"
    ],
    [
      0.180214,
      "v"
    ],
    [
      0.317973,
      "/"
    ],
    [
      0.349508,
      "l"
    ],
    [
      0.220242,
      "o"
    ],
    [
      0.165831,
      "o"
    ],
    [
      0.210037,
      "p"
    ],
    [
      0.710918,
      "1"
    ],
    [
      0.685504,
      "\r\n"
    ],
    [
      0.02663,
      "mdadm: hot removed /dev/loop1 from /dev/md0\r\n"
    ],
    [
      0.032033,
      "\u001b]0;flachman@lachbook:/tmp\u0007"
    ],
    [
      0.001137,
      "\u001b[0;38;5;231;48;5;160;1m root \u001b[0;38;5;160;48;5;240;22m \u001b[0;38;5;250;48;5;240m/ \u001b[0;38;5;245;48;5;240;22m \u001b[0;38;5;252;48;5;240;1mtmp \u001b[0;38;5;240;49;22m \u001b[0m"
    ],
    [
      2.0,
      "mdadm /dev/md0 --remove /dev/loop1"
    ],
    [
      0.317852,
      "\r\u001b[C\u001b[C\u001b[C\u001b[C\u001b[C\u001b[C\u001b[C\u001b[C\u001b[C\u001b[C\u001b[C\u001b[C\u001b[C\u001b[C\u001b[C\u001b[C\u001b[C\u001b[C\u001b[17Pcat /proc/mdstat "
    ],
    [
      0.554745,
      "\b\b\b\b\b\b\b\b\b\b\b\b\b\b\b\b\b\u001b[7@mdadm --detail /dev/md0\u001b[C"
    ],
    [
      0.747659,
      "\r\n"
    ],
    [
      0.015365,
      "/dev/md0:\r\n        Version : 1.2\r\n"
    ],
    [
      0.000353,
      "  Creation Time : Tue Mar  6 16:16:47 2018\r\n     Raid Level : raid5\r\n     Array Size : 407552 (398.00 MiB 417.33 MB)\r\n  Used Dev Size : 203776 (199.00 MiB 208.67 MB)\r\n   Raid Devices : 3\r\n  Total Devices : 2\r\n    Persistence : Superblock is persistent\r\n\r\n    Update Time : Tue Mar  6 16:20:55 2018\r\n          State : clean, degraded \r\n Active Devices : 2\r\nWorking Devices : 2\r\n Failed Devices : 0\r\n  Spare Devices : 0\r\n\r\n         Layout : left-symmetric\r\n     Chunk Size : 512K\r\n\r\n           Name : lachbook:0  (local to host lachbook)\r\n           UUID : 1e4cc345:48d519b3:aa516367:d690f01e\r\n         Events : 21\r\n\r\n    Number   Major   Minor   RaidDevice State\r\n"
    ],
    [
      0.000103,
      "       0       7        0        0      active sync   /dev/loop0\r\n       -       0        0        1      removed\r\n       3       7        2        2      active sync   /dev/loop2\r\n"
    ],
    [
      0.043564,
      "\u001b]0;flachman@lachbook:/tmp\u0007"
    ],
    [
      0.001397,
      "\u001b[0;38;5;231;48;5;160;1m root \u001b[0;38;5;160;48;5;240;22m \u001b[0;38;5;250;48;5;240m/ \u001b[0;38;5;245;48;5;240;22m \u001b[0;38;5;252;48;5;240;1mtmp \u001b[0;38;5;240;49;22m \u001b[0m"
    ],
    [
      2.0,
      "l"
    ],
    [
      0.211497,
      "o"
    ],
    [
      0.209975,
      "s"
    ],
    [
      0.053688,
      "e"
    ],
    [
      0.31362,
      "tup "
    ],
    [
      0.814668,
      "-"
    ],
    [
      0.179093,
      "d"
    ],
    [
      0.270694,
      " "
    ],
    [
      1.049001,
      "/"
    ],
    [
      0.397209,
      "d"
    ],
    [
      0.088764,
      "e"
    ],
    [
      0.17204,
      "v"
    ],
    [
      0.608109,
      "/"
    ],
    [
      0.231012,
      "l"
    ],
    [
      0.209633,
      "o"
    ],
    [
      0.164883,
      "o"
    ],
    [
      0.207986,
      "p"
    ],
    [
      0.345585,
      "1"
    ],
    [
      1.248824,
      "\r\n"
    ],
    [
      0.052171,
      "\u001b]0;flachman@lachbook:/tmp\u0007"
    ],
    [
      0.000499,
      "\u001b[0;38;5;231;48;5;160;1m root \u001b[0;38;5;160;48;5;240;22m \u001b[0;38;5;250;48;5;240m/ \u001b[0;38;5;245;48;5;240;22m \u001b[0;38;5;252;48;5;240;1mtmp \u001b[0;38;5;240;49;22m \u001b[0m"
    ],
    [
      2.0,
      "l"
    ],
    [
      0.21642,
      "o"
    ],
    [
      0.124221,
      "s"
    ],
    [
      0.047319,
      "e"
    ],
    [
      0.257824,
      "tup "
    ],
    [
      0.499312,
      "-"
    ],
    [
      0.103677,
      "a"
    ],
    [
      0.149339,
      "\r\n"
    ],
    [
      0.001075,
      "/dev/loop2: [66308]:917606 (/sysroot/tmp/third-disk)\r\n"
    ],
    [
      2.1e-05,
      "/dev/loop0: [66308]:917565 (/sysroot/tmp/first-disk)\r\n"
    ],
    [
      0.015481,
      "\u001b]0;flachman@lachbook:/tmp\u0007"
    ],
    [
      0.000544,
      "\u001b[0;38;5;231;48;5;160;1m root \u001b[0;38;5;160;48;5;240;22m \u001b[0;38;5;250;48;5;240m/ \u001b[0;38;5;245;48;5;240;22m \u001b[0;38;5;252;48;5;240;1mtmp \u001b[0;38;5;240;49;22m \u001b[0m"
    ],
    [
      2.0,
      "#"
    ],
    [
      0.255264,
      " "
    ],
    [
      2.0,
      "-"
    ],
    [
      0.216461,
      " "
    ],
    [
      0.506522,
      "A"
    ],
    [
      0.381213,
      "d"
    ],
    [
      0.207381,
      "d"
    ],
    [
      0.29923,
      " "
    ],
    [
      0.199918,
      "n"
    ],
    [
      0.108126,
      "e"
    ],
    [
      0.091947,
      "w"
    ],
    [
      0.298145,
      " "
    ],
    [
      0.268656,
      "d"
    ],
    [
      0.16309,
      "i"
    ],
    [
      0.112809,
      "s"
    ],
    [
      0.133862,
      "k"
    ],
    [
      0.214315,
      " "
    ],
    [
      0.242091,
      "t"
    ],
    [
      0.110213,
      "o"
    ],
    [
      0.195199,
      " "
    ],
    [
      0.13538,
      "c"
    ],
    [
      0.194211,
      "o"
    ],
    [
      0.203885,
      "m"
    ],
    [
      0.183448,
      "p"
    ],
    [
      0.255976,
      "u"
    ],
    [
      0.195517,
      "t"
    ],
    [
      0.098677,
      "e"
    ],
    [
      0.158994,
      "r"
    ],
    [
      0.458421,
      "\r\n"
    ],
    [
      0.046843,
      "\u001b]0;flachman@lachbook:/tmp\u0007"
    ],
    [
      0.000686,
      "\u001b[0;38;5;231;48;5;160;1m root \u001b[0;38;5;160;48;5;240;22m \u001b[0;38;5;250;48;5;240m/ \u001b[0;38;5;245;48;5;240;22m \u001b[0;38;5;252;48;5;240;1mtmp \u001b[0;38;5;240;49;22m \u001b[0m"
    ],
    [
      2.0,
      "f"
    ],
    [
      0.171146,
      "a"
    ],
    [
      0.150233,
      "l"
    ],
    [
      0.155675,
      "l"
    ],
    [
      0.194633,
      "o"
    ],
    [
      0.132446,
      "cate "
    ],
    [
      2.0,
      "-"
    ],
    [
      0.784627,
      "l"
    ],
    [
      0.123254,
      " "
    ],
    [
      0.318816,
      "2"
    ],
    [
      0.164723,
      "0"
    ],
    [
      0.159003,
      "0"
    ],
    [
      0.657413,
      "M"
    ],
    [
      0.852235,
      " "
    ],
    [
      0.602323,
      "n"
    ],
    [
      0.079616,
      "e"
    ],
    [
      0.092044,
      "w"
    ],
    [
      0.466493,
      "-"
    ],
    [
      0.213901,
      "d"
    ],
    [
      0.16423,
      "i"
    ],
    [
      0.130457,
      "s"
    ],
    [
      0.091778,
      "k"
    ],
    [
      0.505245,
      "\r\n"
    ],
    [
      0.048663,
      "\u001b]0;flachman@lachbook:/tmp\u0007"
    ],
    [
      0.001027,
      "\u001b[0;38;5;231;48;5;160;1m root \u001b[0;38;5;160;48;5;240;22m \u001b[0;38;5;250;48;5;240m/ \u001b[0;38;5;245;48;5;240;22m \u001b[0;38;5;252;48;5;240;1mtmp \u001b[0;38;5;240;49;22m \u001b[0m"
    ],
    [
      0.905471,
      "l"
    ],
    [
      0.18158,
      "o"
    ],
    [
      0.085463,
      "s"
    ],
    [
      0.068489,
      "e"
    ],
    [
      0.22557,
      "tup "
    ],
    [
      1.239117,
      "-"
    ],
    [
      0.162093,
      "f"
    ],
    [
      0.217043,
      " "
    ],
    [
      0.650722,
      "n"
    ],
    [
      0.075568,
      "e"
    ],
    [
      0.071699,
      "w"
    ],
    [
      0.293313,
      "-disk "
    ],
    [
      0.266258,
      "\r\n"
    ],
    [
      0.060516,
      "\u001b]0;flachman@lachbook:/tmp\u0007"
    ],
    [
      0.000598,
      "\u001b[0;38;5;231;48;5;160;1m root \u001b[0;38;5;160;48;5;240;22m \u001b[0;38;5;250;48;5;240m/ \u001b[0;38;5;245;48;5;240;22m \u001b[0;38;5;252;48;5;240;1mtmp \u001b[0;38;5;240;49;22m \u001b[0m"
    ],
    [
      1.455883,
      "l"
    ],
    [
      0.19254,
      "o"
    ],
    [
      0.085987,
      "s"
    ],
    [
      0.052314,
      "e"
    ],
    [
      0.283741,
      "tup "
    ],
    [
      0.544899,
      "-"
    ],
    [
      0.090642,
      "a"
    ],
    [
      0.179523,
      "\r\n"
    ],
    [
      0.003587,
      "/dev/loop1: [66308]:917561 (/sysroot/tmp/new-disk)\r\n"
    ],
    [
      0.011395,
      "/dev/loop2: [66308]:917606 (/sysroot/tmp/third-disk)\r\n"
    ],
    [
      6.6e-05,
      "/dev/loop0: [66308]:917565 (/sysroot/tmp/first-disk)\r\n"
    ],
    [
      0.044867,
      "\u001b]0;flachman@lachbook:/tmp\u0007"
    ],
    [
      0.000887,
      "\u001b[0;38;5;231;48;5;160;1m root \u001b[0;38;5;160;48;5;240;22m \u001b[0;38;5;250;48;5;240m/ \u001b[0;38;5;245;48;5;240;22m \u001b[0;38;5;252;48;5;240;1mtmp \u001b[0;38;5;240;49;22m \u001b[0m"
    ],
    [
      2.0,
      "#"
    ],
    [
      0.317107,
      " "
    ],
    [
      0.283391,
      "-"
    ],
    [
      0.157089,
      " "
    ],
    [
      0.910134,
      "U"
    ],
    [
      0.206704,
      "s"
    ],
    [
      0.078738,
      "e"
    ],
    [
      0.204221,
      " "
    ],
    [
      0.11134,
      "t"
    ],
    [
      0.283248,
      "h"
    ],
    [
      0.169812,
      "i"
    ],
    [
      0.232825,
      "s"
    ],
    [
      0.21167,
      " "
    ],
    [
      0.481735,
      "d"
    ],
    [
      0.179964,
      "i"
    ],
    [
      0.148036,
      "s"
    ],
    [
      0.151877,
      "k"
    ],
    [
      0.496076,
      " "
    ],
    [
      0.219388,
      "i"
    ],
    [
      0.209079,
      "n"
    ],
    [
      0.185558,
      " "
    ],
    [
      0.195719,
      "e"
    ],
    [
      0.257708,
      "x"
    ],
    [
      0.146313,
      "i"
    ],
    [
      0.132409,
      "s"
    ],
    [
      0.211595,
      "t"
    ],
    [
      0.134744,
      "i"
    ],
    [
      0.165096,
      "n"
    ],
    [
      0.122195,
      "g"
    ],
    [
      0.231726,
      " "
    ],
    [
      0.454444,
      "R"
    ],
    [
      0.185207,
      "A"
    ],
    [
      0.211529,
      "I"
    ],
    [
      0.150746,
      "D"
    ],
    [
      0.476291,
      "\r\n"
    ],
    [
      0.043788,
      "\u001b]0;flachman@lachbook:/tmp\u0007"
    ],
    [
      0.001021,
      "\u001b[0;38;5;231;48;5;160;1m root \u001b[0;38;5;160;48;5;240;22m \u001b[0;38;5;250;48;5;240m/ \u001b[0;38;5;245;48;5;240;22m \u001b[0;38;5;252;48;5;240;1mtmp \u001b[0;38;5;240;49;22m \u001b[0m"
    ],
    [
      2.0,
      "m"
    ],
    [
      0.305158,
      "d"
    ],
    [
      0.424919,
      "\u0007"
    ],
    [
      0.440097,
      "a"
    ],
    [
      0.122106,
      "d"
    ],
    [
      0.285861,
      "m "
    ],
    [
      1.755282,
      "/"
    ],
    [
      0.130187,
      "d"
    ],
    [
      0.082226,
      "e"
    ],
    [
      0.15262,
      "v"
    ],
    [
      0.289217,
      "/"
    ],
    [
      0.314603,
      "m"
    ],
    [
      0.112238,
      "d"
    ],
    [
      0.168875,
      "0 "
    ],
    [
      0.921039,
      "-"
    ],
    [
      0.202834,
      "-"
    ],
    [
      0.262608,
      "a"
    ],
    [
      0.08869,
      "d"
    ],
    [
      0.227041,
      "d"
    ],
    [
      0.318726,
      " "
    ],
    [
      0.420319,
      "/"
    ],
    [
      0.18101,
      "d"
    ],
    [
      0.066212,
      "e"
    ],
    [
      0.171651,
      "v"
    ],
    [
      0.55606,
      "/"
    ],
    [
      0.351063,
      "l"
    ],
    [
      0.311912,
      "o"
    ],
    [
      0.164834,
      "o"
    ],
    [
      0.165657,
      "\u0007p"
    ],
    [
      1.103473,
      "0"
    ],
    [
      0.714552,
      "\b\u001b[K"
    ],
    [
      1.743419,
      "1"
    ],
    [
      2.0,
      "\r\n"
    ],
    [
      0.051546,
      "mdadm: added /dev/loop1\r\n"
    ],
    [
      0.05134,
      "\u001b]0;flachman@lachbook:/tmp\u0007"
    ],
    [
      0.00171,
      "\u001b[0;38;5;231;48;5;160;1m root \u001b[0;38;5;160;48;5;240;22m \u001b[0;38;5;250;48;5;240m/ \u001b[0;38;5;245;48;5;240;22m \u001b[0;38;5;252;48;5;240;1mtmp \u001b[0;38;5;240;49;22m \u001b[0m"
    ],
    [
      1.674662,
      "mdadm /dev/md0 --add /dev/loop1"
    ],
    [
      0.383364,
      "\r\u001b[C\u001b[C\u001b[C\u001b[C\u001b[C\u001b[C\u001b[C\u001b[C\u001b[C\u001b[C\u001b[C\u001b[C\u001b[C\u001b[C\u001b[C\u001b[C\u001b[C\u001b[C# - Use this disk in existing RAID"
    ],
    [
      0.316052,
      "\r\u001b[C\u001b[C\u001b[C\u001b[C\u001b[C\u001b[C\u001b[C\u001b[C\u001b[C\u001b[C\u001b[C\u001b[C\u001b[C\u001b[C\u001b[C\u001b[C\u001b[C\u001b[Closetup -a\u001b[K"
    ],
    [
      0.262094,
      "\bf new-disk "
    ],
    [
      0.450317,
      "\r\u001b[C\u001b[C\u001b[C\u001b[C\u001b[C\u001b[C\u001b[C\u001b[C\u001b[C\u001b[C\u001b[C\u001b[C\u001b[C\u001b[C\u001b[C\u001b[C\u001b[C\u001b[Cfallocate -l 200M new-disk"
    ],
    [
      0.878225,
      "\r\u001b[C\u001b[C\u001b[C\u001b[C\u001b[C\u001b[C\u001b[C\u001b[C\u001b[C\u001b[C\u001b[C\u001b[C\u001b[C\u001b[C\u001b[C\u001b[C\u001b[C\u001b[C# - Add new disk to computer"
    ],
    [
      0.763316,
      "\r\u001b[C\u001b[C\u001b[C\u001b[C\u001b[C\u001b[C\u001b[C\u001b[C\u001b[C\u001b[C\u001b[C\u001b[C\u001b[C\u001b[C\u001b[C\u001b[C\u001b[C\u001b[C\u001b[18Plosetup -a"
    ],
    [
      0.472723,
      "\bd /dev/loop1"
    ],
    [
      0.381279,
      "\r\u001b[C\u001b[C\u001b[C\u001b[C\u001b[C\u001b[C\u001b[C\u001b[C\u001b[C\u001b[C\u001b[C\u001b[C\u001b[C\u001b[C\u001b[C\u001b[C\u001b[C\u001b[Cmdadm --detail /dev/md0 "
    ],
    [
      3.175184,
      "\r\n"
    ],
    [
      0.018643,
      "/dev/md0:\r\n        Version : 1.2\r\n  Creation Time : Tue Mar  6 16:16:47 2018\r\n     Raid Level : raid5\r\n     Array Size : 407552 (398.00 MiB 417.33 MB)\r\n  Used Dev Size : 203776 (199.00 MiB 208.67 MB)\r\n   Raid Devices : 3\r\n  Total Devices : 3\r\n    Persistence : Superblock is persistent\r\n\r\n    Update Time : Tue Mar  6 16:22:39 2018\r\n          State : clean \r\n"
    ],
    [
      7.7e-05,
      " Active Devices : 3\r\nWorking Devices : 3\r\n Failed Devices : 0\r\n  Spare Devices : 0\r\n\r\n         Layout : left-symmetric\r\n     Chunk Size : 512K\r\n\r\n           Name : lachbook:0  (local to host lachbook)\r\n           UUID : 1e4cc345:48d519b3:aa516367:d690f01e\r\n         Events : 40\r\n\r\n    Number   Major   Minor   RaidDevice State\r\n"
    ],
    [
      5.1e-05,
      "       0       7        0        0      active sync   /dev/loop0\r\n       4       7        1        1      active sync   /dev/loop1\r\n       3       7        2        2      active sync   /dev/loop2\r\n"
    ],
    [
      0.045561,
      "\u001b]0;flachman@lachbook:/tmp\u0007"
    ],
    [
      0.001426,
      "\u001b[0;38;5;231;48;5;160;1m root \u001b[0;38;5;160;48;5;240;22m \u001b[0;38;5;250;48;5;240m/ \u001b[0;38;5;245;48;5;240;22m \u001b[0;38;5;252;48;5;240;1mtmp \u001b[0;38;5;240;49;22m \u001b[0m"
    ],
    [
      2.0,
      "e"
    ],
    [
      0.278581,
      "x"
    ],
    [
      0.186634,
      "i"
    ],
    [
      0.17545,
      "t"
    ],
    [
      2.0,
      "\r\n"
    ]
  ]
}
